[gd_scene load_steps=9 format=3 uid="uid://omi7dn5qkksr"]

[ext_resource type="Script" path="res://objects/Light.gd" id="1_fho6q"]

[sub_resource type="BoxMesh" id="BoxMesh_iynj7"]
size = Vector3(0.2, 0.2, 0.2)

[sub_resource type="Animation" id="Animation_xnxgl"]
resource_name = "Light"
length = 5.0
tracks/0/type = "value"
tracks/0/imported = false
tracks/0/enabled = true
tracks/0/path = NodePath("SpotLight3D:light_energy")
tracks/0/interp = 1
tracks/0/loop_wrap = true
tracks/0/keys = {
"times": PackedFloat32Array(0, 0.5, 0.6, 0.9, 1.2, 2.6, 2.8, 3),
"transitions": PackedFloat32Array(1, 1e-05, 1, 1e-05, 1e-05, 1e-05, 1e-05, 1),
"update": 0,
"values": [1.0, 1.0, 0.0, 1.0, 0.0, 1.0, 1.0, 0.0]
}

[sub_resource type="Animation" id="Animation_ohjqm"]
resource_name = "Energy2"
length = 5.0
tracks/0/type = "value"
tracks/0/imported = false
tracks/0/enabled = true
tracks/0/path = NodePath("SpotLight3D:light_energy")
tracks/0/interp = 1
tracks/0/loop_wrap = true
tracks/0/keys = {
"times": PackedFloat32Array(0, 3.1, 3.4, 3.9),
"transitions": PackedFloat32Array(1, 1e-05, 1.47389e-05, 2),
"update": 0,
"values": [1.0, 1.0, 0.0, 1.0]
}

[sub_resource type="Animation" id="Animation_mq5ab"]
resource_name = "Energy3"
length = 5.0
tracks/0/type = "value"
tracks/0/imported = false
tracks/0/enabled = true
tracks/0/path = NodePath("SpotLight3D:light_energy")
tracks/0/interp = 1
tracks/0/loop_wrap = true
tracks/0/keys = {
"times": PackedFloat32Array(0, 2.9, 3, 3.1, 3.2, 3.5),
"transitions": PackedFloat32Array(1, 1.69306e-05, 1, 1e-05, 1e-05, 1),
"update": 0,
"values": [1.0, 1.0, 0.0, 1.0, 0.0, 1.0]
}

[sub_resource type="AnimationLibrary" id="AnimationLibrary_3bj7p"]
_data = {
"Energy1": SubResource("Animation_xnxgl"),
"Energy2": SubResource("Animation_ohjqm"),
"Energy3": SubResource("Animation_mq5ab")
}

[sub_resource type="Animation" id="Animation_yrq5y"]
resource_name = "Attenuation"
length = 5.0
loop_mode = 1
tracks/0/type = "value"
tracks/0/imported = false
tracks/0/enabled = true
tracks/0/path = NodePath(".:spot_attenuation")
tracks/0/interp = 2
tracks/0/loop_wrap = true
tracks/0/keys = {
"times": PackedFloat32Array(0, 0.9, 1.7, 2.5, 3, 3.5, 4.1, 4.7, 5),
"transitions": PackedFloat32Array(1, 1, 3, 1.32835e-05, 1, 1, 1, 1, 1),
"update": 0,
"values": [1.0, 0.7, 0.9, 1.0, 0.5, 0.7, 1.0, 0.3, 0.6]
}

[sub_resource type="AnimationLibrary" id="AnimationLibrary_11a6n"]
_data = {
"Attenuation": SubResource("Animation_yrq5y")
}

[node name="Light" type="Node3D"]
script = ExtResource("1_fho6q")

[node name="SpotLight3D" type="SpotLight3D" parent="."]
transform = Transform3D(1, 0, 0, 0, -4.37114e-08, 1, 0, -1, -4.37114e-08, 0, 0, 0)
shadow_enabled = true
spot_attenuation = 0.6
spot_angle = 55.0
spot_angle_attenuation = 4.0

[node name="MeshInstance3D" type="MeshInstance3D" parent="."]
transform = Transform3D(1, 0, 0, 0, 1, 0, 0, 0, 1, 0, 0.1, 0)
mesh = SubResource("BoxMesh_iynj7")

[node name="AnimationPlayerEnergy" type="AnimationPlayer" parent="."]
libraries = {
"": SubResource("AnimationLibrary_3bj7p")
}

[node name="AnimationPlayerAttenuation" type="AnimationPlayer" parent="."]
root_node = NodePath("../SpotLight3D")
libraries = {
"": SubResource("AnimationLibrary_11a6n")
}
autoplay = "Attenuation"

[connection signal="animation_finished" from="AnimationPlayerEnergy" to="." method="_on_animation_player_energy_animation_finished"]
