[gd_scene load_steps=2 format=3 uid="uid://bsuv113ehlcyg"]

[ext_resource type="MeshLibrary" uid="uid://bv287m7lgffg7" path="res://tubes/tubes.tres" id="1_pssul"]

[node name="GridMap" type="GridMap"]
mesh_library = ExtResource("1_pssul")
cell_size = Vector3(1, 1, 1)
data = {
"cells": PackedInt32Array(0, 0, 720896, 65535, 0, 524290, 131071, 0, 524291, 196607, 0, 2, 131072, 0, 1376257)
}
metadata/_editor_floor_ = Vector3(0, 2, 0)
